<?xml version="1.0" encoding="utf-8"?>
<!-- Generator: Adobe Illustrator 21.0.2, SVG Export Plug-In . SVG Version: 6.00 Build 0)  -->
<svg version="1.1" baseProfile="basic" id="Layer_1"
	 xmlns="http://www.w3.org/2000/svg" xmlns:xlink="http://www.w3.org/1999/xlink" x="0px" y="0px" viewBox="0 0 50 50"
	 xml:space="preserve">
<style type="text/css">
	.st0{fill:#010101;}
</style>
<path class="st0" d="M41.6667,7.875H8.3333c-2.75,0-5,1.9722-5,4.3828v23.4844c0,2.4105,2.25,4.3828,5,4.3828h14.522
	c0.4392,0,0.8327,0.2832,0.9588,0.7039c0.5781,1.9279,1.0059,4.0631,0.7919,5.2186c-0.0722,0.3901,0.0201,0.8135,0.3473,1.0379
	c0.7163,0.4912,1.6546,0.5855,2.473,0.1998c2.3153-1.0911,6.2336-3.3239,8.2748-6.6642c0.1848-0.3025,0.5018-0.496,0.8563-0.496
	h5.1092c2.75,0,5-1.9723,5-4.3828V12.2578C46.6667,9.8472,44.4167,7.875,41.6667,7.875z M44.9413,35.7422
	c0,1.4405-1.4996,2.6574-3.2746,2.6574h-6.4812c-0.389,0-0.7521,0.2201-0.9058,0.5774c-1.6502,3.8346-7.6322,6.4566-7.6322,6.4566
	c0.0081-0.3749-0.0188-0.7701-0.0568-1.1688c-0.0103-0.1092-0.0222-0.2231-0.0364-0.3455
	c-0.1544-1.2644-0.4835-2.5694-0.8177-3.6613c-0.1312-0.4012-0.2815-0.8165-0.4533-1.2435c-0.1509-0.3749-0.522-0.615-0.9261-0.615
	H8.3333c-1.775,0-3.2746-1.2169-3.2746-2.6574V12.2578c0-1.4404,1.4996-2.6574,3.2746-2.6574h33.3334
	c1.775,0,3.2746,1.217,3.2746,2.6574V35.7422z"/>
</svg>
