<?xml version="1.0" encoding="utf-8"?>
<!-- Generator: Adobe Illustrator 21.0.2, SVG Export Plug-In . SVG Version: 6.00 Build 0)  -->
<svg version="1.1" baseProfile="basic" id="Layer_1"
	 xmlns="http://www.w3.org/2000/svg" xmlns:xlink="http://www.w3.org/1999/xlink" x="0px" y="0px" viewBox="0 0 50 50"
	 xml:space="preserve">
<style type="text/css">
	.st0{fill:#DDDDDD;}
</style>
<path class="st0" d="M21.9864,18.8561v26.8522H9.9759V18.1264c0,0,0.9357-13.8347,14.9082-13.8347s15.14,12.2586,15.14,14.9439
	S39.2653,31.786,23.9712,31.786V21.2203c0,0,3.6776,0.2919,3.6776-3.0063c0,0,0.2498-2.4517-2.7646-2.4517
	S21.9864,18.8561,21.9864,18.8561z"/>
</svg>
